Biostatistics 1 - Lesson 10: Confidence intervals
…
[1] 0.3434949

10,000 samples of size n = 30 from yrbss2

Take 10,000 random samples of size

n = 30 from yrbss2:

samp_n30_rep10000 <- yrbss2 %>%
  rep_sample_n(size = 30, 
               reps = 10000,
               replace = FALSE)
samp_n30_rep10000

# A tibble: 300,000 × 4
# Groups:   replicate [10,000]
   replicate    id height.ft weight.lb
       <int> <int>     <dbl>     <dbl>
 1         1  5869      5.15      145.
 2         1  6694      5.41      127.
 3         1  2517      5.74      130.
 4         1  5372      6.07      180.
 5         1  5403      6.07      163.
 6         1  2329      6.07      182.
 7         1  8863      5.25      125.
 8         1  8058      5.84      135.
 9         1   335      6.17      235.
10         1  4698      5.58      124.
# ℹ 299,990 more rows

Calculate the mean for each of the 10,000 random samples:

means_hght_samp_n30_rep10000 <- 
  samp_n30_rep10000 %>% 
  group_by(replicate) %>% 
  summarise(mean_height = 
            mean(height.ft))

means_hght_samp_n30_rep10000

# A tibble: 10,000 × 2
   replicate mean_height
       <int>       <dbl>
 1         1        5.59
 2         2        5.59
 3         3        5.51
 4         4        5.65
 5         5        5.64
 6         6        5.57
 7         7        5.61
 8         8        5.60
 9         9        5.52
10        10        5.64
# ℹ 9,990 more rows
…
