Biostatistics 1 - Lesson 3: Data visualization
…
dds.discr %>% 
  count(ethnicity, age.cohort)

# A tibble: 35 × 3
   ethnicity       age.cohort     n
   <fct>           <fct>      <int>
 1 American Indian 13-17          1
 2 American Indian 22-50          1
 3 American Indian 51+            2
 4 Asian           0-5            8
 5 Asian           6-12          18
 6 Asian           13-17         20
 7 Asian           18-21         41
 8 Asian           22-50         29
 9 Asian           51+           13
10 Black           0-5            3
# ℹ 25 more rows
…
