BSTA 511/611 Fall 2023 - Day 3 part 3 code: Data wrangling
…
Subset by columns

select() to choose columns

select columns (variables)

no quotes needed around variable names

can be used to rearrange columns

uses special syntax that is flexible and has many options

dds.discr %>% select(id, expenditures, ethnicity)

# A tibble: 1,000 × 3
      id expenditures ethnicity         
   <int>        <int> <fct>             
 1 10210         2113 White not Hispanic
 2 10409        41924 White not Hispanic
 3 10486         1454 Hispanic          
 4 10538         6400 Hispanic          
 5 10568         4412 White not Hispanic
 6 10690         4566 Hispanic          
 7 10711         3915 White not Hispanic
 8 10778         3873 Black             
 9 10820         5021 White not Hispanic
10 10823         2887 Hispanic          
# ℹ 990 more rows
…
change the order of columns in dataset

specified column names get put first,

and unspecified column names after that in original order

no quotes needed around variable names

similar options as with select(),

plus special ones such as .before and .after

dds.discr %>% relocate(age.cohort, ethnicity)

# A tibble: 1,000 × 6
   age.cohort ethnicity             id   age gender expenditures
   <fct>      <fct>              <int> <int> <fct>         <int>
 1 13-17      White not Hispanic 10210    17 Female         2113
 2 22-50      White not Hispanic 10409    37 Male          41924
 3 0-5        Hispanic           10486     3 Male           1454
 4 18-21      Hispanic           10538    19 Female         6400
 5 13-17      White not Hispanic 10568    13 Male           4412
 6 13-17      Hispanic           10690    15 Female         4566
 7 13-17      White not Hispanic 10711    13 Female         3915
 8 13-17      Black              10778    17 Male           3873
 9 13-17      White not Hispanic 10820    14 Female         5021
10 13-17      Hispanic           10823    13 Male           2887
# ℹ 990 more rows
…
dds.discr %>% relocate(age,.before = ethnicity)
dds.discr %>% relocate(ethnicity, .after = age.cohort)
dds.discr %>% relocate(age, .after = last_col())

rename() columns

renames column variables

dds.discr %>% rename(IDnumber = id)   # order: new_name = old_name

# A tibble: 1,000 × 6
   IDnumber age.cohort   age gender expenditures ethnicity         
      <int> <fct>      <int> <fct>         <int> <fct>             
 1    10210 13-17         17 Female         2113 White not Hispanic
 2    10409 22-50         37 Male          41924 White not Hispanic
 3    10486 0-5            3 Male           1454 Hispanic          
 4    10538 18-21         19 Female         6400 Hispanic          
 5    10568 13-17         13 Male           4412 White not Hispanic
 6    10690 13-17         15 Female         4566 Hispanic          
 7    10711 13-17         13 Female         3915 White not Hispanic
 8    10778 13-17         17 Male           3873 Black             
 9    10820 13-17         14 Female         5021 White not Hispanic
10    10823 13-17         13 Male           2887 Hispanic          
# ℹ 990 more rows
Make new variables

mutate()

Use mutate() to add new columns to a tibble * Many options in how to define new column of data

# use = to define new a variable within mutate (not <- or ==) 
newdata <- dds.discr %>% 
  mutate(
    log_expenditures = log(expenditures),
    expend_per_yearage = expenditures / age)   

newdata %>% select(id, age, expenditures, log_expenditures, expend_per_yearage)

# A tibble: 1,000 × 5
      id   age expenditures log_expenditures expend_per_yearage
   <int> <int>        <int>            <dbl>              <dbl>
 1 10210    17         2113             7.66               124.
 2 10409    37        41924            10.6               1133.
 3 10486     3         1454             7.28               485.
 4 10538    19         6400             8.76               337.
 5 10568    13         4412             8.39               339.
 6 10690    15         4566             8.43               304.
 7 10711    13         3915             8.27               301.
 8 10778    17         3873             8.26               228.
 9 10820    14         5021             8.52               359.
10 10823    13         2887             7.97               222.
# ℹ 990 more rows
…
