Applied Biostatistics 1 - Lesson 8: Variability in estimates
…
Did we get the same mean height with our 2nd sample?

100 random samples of size n = 5 from yrbss2

Take 100 random samples of size

n = 5 from yrbss2:

samp_n5_rep100 <- yrbss2 %>%
  rep_sample_n(size = 5, 
               reps = 100,
               replace = FALSE)
samp_n5_rep100

# A tibble: 500 × 4
# Groups:   replicate [100]
   replicate    id height.ft weight.lb
       <int> <int>     <dbl>     <dbl>
 1         1  6483      5.51     145. 
 2         1  9899      4.92      90.0
 3         1  6103      5.68     118. 
 4         1  2702      5.68     150. 
 5         1 11789      5.35     115. 
 6         2 10164      5.51     140. 
 7         2  5807      5.41     215. 
 8         2  9382      5.15      98.0
 9         2  4904      6.00     196. 
10         2   229      6.07     101. 
# ℹ 490 more rows

Calculate the mean for each of the 100 random samples:

means_hght_samp_n5_rep100 <- 
  samp_n5_rep100 %>% 
  group_by(replicate) %>% 
  summarise(
    mean_height = mean(height.ft))

means_hght_samp_n5_rep100

# A tibble: 100 × 2
   replicate mean_height
       <int>       <dbl>
 1         1        5.43
 2         2        5.63
 3         3        5.34
 4         4        5.70
 5         5        5.90
 6         6        5.37
 7         7        5.49
 8         8        5.60
 9         9        5.50
10        10        5.68
# ℹ 90 more rows
…
Is the mean of the means close to the “center” of the distribution?

10,000 random samples of size n = 5 from yrbss2

Take 10,000 random samples of size

n = 5 from yrbss2:

samp_n5_rep10000 <- yrbss2 %>%
  rep_sample_n(size = 5, 
               reps = 10000,
               replace = FALSE)
samp_n5_rep10000

# A tibble: 50,000 × 4
# Groups:   replicate [10,000]
   replicate    id height.ft weight.lb
       <int> <int>     <dbl>     <dbl>
 1         1  6383      5.35      126.
 2         1  4019      5.41      107.
 3         1  4856      5.25      135.
 4         1  9988      5.58      120.
 5         1  2245      6.17      270.
 6         2 10580      5.68      155.
 7         2  2254      5.84      159.
 8         2  8081      5.09      110.
 9         2 10194      5.35      115.
10         2  7689      5.35      135.
# ℹ 49,990 more rows

Calculate the mean for each of the 10,000 random samples:

means_hght_samp_n5_rep10000 <- 
  samp_n5_rep10000 %>% 
  group_by(replicate) %>% 
  summarise(
    mean_height = mean(height.ft))

means_hght_samp_n5_rep10000

# A tibble: 10,000 × 2
   replicate mean_height
       <int>       <dbl>
 1         1        5.55
 2         2        5.46
 3         3        5.49
 4         4        5.60
 5         5        5.47
 6         6        5.83
 7         7        5.68
 8         8        5.47
 9         9        5.37
10        10        5.15
# ℹ 9,990 more rows
…
Is the mean of the means close to the “center” of the distribution?

10,000 samples of size n = 30 from yrbss2

Take 10,000 random samples of size

n = 30 from yrbss2:

samp_n30_rep10000 <- yrbss2 %>%
  rep_sample_n(size = 30, 
               reps = 10000,
               replace = FALSE)
samp_n30_rep10000

# A tibble: 300,000 × 4
# Groups:   replicate [10,000]
   replicate    id height.ft weight.lb
       <int> <int>     <dbl>     <dbl>
 1         1  3871      5.25      115.
 2         1 12090      5.15      125.
 3         1   241      5.58      119.
 4         1  4570      5.58      140.
 5         1  4131      5.35      143.
 6         1 11513      5.35      135.
 7         1  9663      5.25      125.
 8         1  3789      5.25      160.
 9         1   442      5.15      130.
10         1 11528      5.51      200.
# ℹ 299,990 more rows

Calculate the mean for each of the 10,000 random samples:

means_hght_samp_n30_rep10000 <- 
  samp_n30_rep10000 %>% 
  group_by(replicate) %>% 
  summarise(mean_height = 
            mean(height.ft))

means_hght_samp_n30_rep10000

# A tibble: 10,000 × 2
   replicate mean_height
       <int>       <dbl>
 1         1        5.48
 2         2        5.63
 3         3        5.46
 4         4        5.46
 5         5        5.51
 6         6        5.54
 7         7        5.56
 8         8        5.51
 9         9        5.51
10        10        5.50
# ℹ 9,990 more rows
…
